[
 {
   "Comuna": "ALGARROBO",
   "Codigo": 5602,
   "Región": "DE VALPARAISO"
 },
 {
   "Comuna": "ALTO DEL CARMEN",
   "Codigo": 3302,
   "Región": "DE ATACAMA"
 },
 {
   "Comuna": "ALTO HOSPICIO",
   "Codigo": 1107,
   "Región": "DE TARAPACA"
 },
 {
   "Comuna": "ANCUD",
   "Codigo": 10202,
   "Región": "DE LOS LAGOS"
 },
 {
   "Comuna": "ANDACOLLO",
   "Codigo": 4103,
   "Región": "DE COQUIMBO"
 },
 {
   "Comuna": "ANGOL",
   "Codigo": 9201,
   "Región": "DE LA ARAUCANIA"
 },
 {
   "Comuna": "ANTOFAGASTA",
   "Codigo": 2101,
   "Región": "DE ANTOFAGASTA"
 },
 {
   "Comuna": "ANTUCO",
   "Codigo": 8302,
   "Región": "DEL BIOBIO"
 },
 {
   "Comuna": "ARAUCO",
   "Codigo": 8202,
   "Región": "DEL BIOBIO"
 },
 {
   "Comuna": "ARICA",
   "Codigo": 15101,
   "Región": "ARICA Y PARINACOTA"
 },
 {
   "Comuna": "BUIN",
   "Codigo": 13402,
   "Región": "METROPOLITANA DE SANTIAGO"
 },
 {
   "Comuna": "BULNES",
   "Codigo": 8402,
   "Región": "DEL BIOBIO"
 },
 {
   "Comuna": "CABILDO",
   "Codigo": 5402,
   "Región": "DE VALPARAISO"
 },
 {
   "Comuna": "CABO DE HORNOS",
   "Codigo": 12201,
   "Región": "DE MAGALLANES Y ANTARTICA CH."
 },
 {
   "Comuna": "CABRERO",
   "Codigo": 8303,
   "Región": "DEL BIOBIO"
 },
 {
   "Comuna": "CALAMA",
   "Codigo": 2201,
   "Región": "DE ANTOFAGASTA"
 },
 {
   "Comuna": "CALBUCO",
   "Codigo": 10102,
   "Región": "DE LOS LAGOS"
 },
 {
   "Comuna": "CALDERA",
   "Codigo": 3102,
   "Región": "DE ATACAMA"
 },
 {
   "Comuna": "CALERA",
   "Codigo": 5502,
   "Región": "DE VALPARAISO"
 },
 {
   "Comuna": "CALERA DE TANGO",
   "Codigo": 13403,
   "Región": "METROPOLITANA DE SANTIAGO"
 },
 {
   "Comuna": "CALLE LARGA",
   "Codigo": 5302,
   "Región": "DE VALPARAISO"
 },
 {
   "Comuna": "CAMARONES",
   "Codigo": 15102,
   "Región": "ARICA Y PARINACOTA"
 },
 {
   "Comuna": "CANELA",
   "Codigo": 4202,
   "Región": "DE COQUIMBO"
 },
 {
   "Comuna": "CARAHUE",
   "Codigo": 9102,
   "Región": "DE LA ARAUCANIA"
 },
 {
   "Comuna": "CARTAGENA",
   "Codigo": 5603,
   "Región": "DE VALPARAISO"
 },
 {
   "Comuna": "CASABLANCA",
   "Codigo": 5102,
   "Región": "DE VALPARAISO"
 },
 {
   "Comuna": "CASTRO",
   "Codigo": 10201,
   "Región": "DE LOS LAGOS"
 },
 {
   "Comuna": "CATEMU",
   "Codigo": 5702,
   "Región": "DE VALPARAISO"
 },
 {
   "Comuna": "CAUQUENES",
   "Codigo": 7201,
   "Región": "DEL MAULE"
 },
 {
   "Comuna": "CERRILLOS",
   "Codigo": 13102,
   "Región": "METROPOLITANA DE SANTIAGO"
 },
 {
   "Comuna": "CERRO NAVIA",
   "Codigo": 13103,
   "Región": "METROPOLITANA DE SANTIAGO"
 },
 {
   "Comuna": "CHANCO",
   "Codigo": 7202,
   "Región": "DEL MAULE"
 },
 {
   "Comuna": "CHIGUAYANTE",
   "Codigo": 8103,
   "Región": "DEL BIOBIO"
 },
 {
   "Comuna": "CHILE CHICO",
   "Codigo": 11401,
   "Región": "AISEN DEL GRAL. CARLOS IBAÑES"
 },
 {
   "Comuna": "CHIMBARONGO",
   "Codigo": 6303,
   "Región": "DEL LIBERTADOR BDO. O'HIGGINS"
 },
 {
   "Comuna": "CHOLCHOL",
   "Codigo": 9121,
   "Región": "DE LA ARAUCANIA"
 },
 {
   "Comuna": "CHONCHI",
   "Codigo": 10203,
   "Región": "DE LOS LAGOS"
 },
 {
   "Comuna": "CISNES",
   "Codigo": 11202,
   "Región": "AISEN DEL GRAL. CARLOS IBAÑES"
 },
 {
   "Comuna": "COBQUECURA",
   "Codigo": 8403,
   "Región": "DEL BIOBIO"
 },
 {
   "Comuna": "COCHRANE",
   "Codigo": 11301,
   "Región": "AISEN DEL GRAL. CARLOS IBAÑES"
 },
 {
   "Comuna": "CODEGUA",
   "Codigo": 6102,
   "Región": "DEL LIBERTADOR BDO. O'HIGGINS"
 },
 {
   "Comuna": "COELEMU",
   "Codigo": 8404,
   "Región": "DEL BIOBIO"
 },
 {
   "Comuna": "COIHUECO",
   "Codigo": 8405,
   "Región": "DEL BIOBIO"
 },
 {
   "Comuna": "COINCO",
   "Codigo": 6103,
   "Región": "DEL LIBERTADOR BDO. O'HIGGINS"
 },
 {
   "Comuna": "COLCHANE",
   "Codigo": 1403,
   "Región": "DE TARAPACA"
 },
 {
   "Comuna": "COLINA",
   "Codigo": 13301,
   "Región": "METROPOLITANA DE SANTIAGO"
 },
 {
   "Comuna": "COLLIPULLI",
   "Codigo": 9202,
   "Región": "DE LA ARAUCANIA"
 },
 {
   "Comuna": "COLTAUCO",
   "Codigo": 6104,
   "Región": "DEL LIBERTADOR BDO. O'HIGGINS"
 },
 {
   "Comuna": "CONTULMO",
   "Codigo": 8204,
   "Región": "DEL BIOBIO"
 },
 {
   "Comuna": "COQUIMBO",
   "Codigo": 4102,
   "Región": "DE COQUIMBO"
 },
 {
   "Comuna": "CORONEL",
   "Codigo": 8102,
   "Región": "DEL BIOBIO"
 },
 {
   "Comuna": "CORRAL",
   "Codigo": 14102,
   "Región": "DE LOS RIOS"
 },
 {
   "Comuna": "CUNCO",
   "Codigo": 9103,
   "Región": "DE LA ARAUCANIA"
 },
 {
   "Comuna": "CURANILAHUE",
   "Codigo": 8205,
   "Región": "DEL BIOBIO"
 },
 {
   "Comuna": "CURARREHUE",
   "Codigo": 9104,
   "Región": "DE LA ARAUCANIA"
 },
 {
   "Comuna": "CUREPTO",
   "Codigo": 7103,
   "Región": "DEL MAULE"
 },
 {
   "Comuna": "DALCAHUE",
   "Codigo": 10205,
   "Región": "DE LOS LAGOS"
 },
 {
   "Comuna": "DIEGO DE ALMAGRO",
   "Codigo": 3202,
   "Región": "DE ATACAMA"
 },
 {
   "Comuna": "EL BOSQUE",
   "Codigo": 13105,
   "Región": "METROPOLITANA DE SANTIAGO"
 },
 {
   "Comuna": "EL CARMEN",
   "Codigo": 8407,
   "Región": "DEL BIOBIO"
 },
 {
   "Comuna": "EL MONTE",
   "Codigo": 13602,
   "Región": "METROPOLITANA DE SANTIAGO"
 },
 {
   "Comuna": "EL QUISCO",
   "Codigo": 5604,
   "Región": "DE VALPARAISO"
 },
 {
   "Comuna": "EL TABO",
   "Codigo": 5605,
   "Región": "DE VALPARAISO"
 },
 {
   "Comuna": "EMPEDRADO",
   "Codigo": 7104,
   "Región": "DEL MAULE"
 },
 {
   "Comuna": "ERCILLA",
   "Codigo": 9204,
   "Región": "DE LA ARAUCANIA"
 },
 {
   "Comuna": "FLORIDA",
   "Codigo": 8104,
   "Región": "DEL BIOBIO"
 },
 {
   "Comuna": "FREIRE",
   "Codigo": 9105,
   "Región": "DE LA ARAUCANIA"
 },
 {
   "Comuna": "FREIRINA",
   "Codigo": 3303,
   "Región": "DE ATACAMA"
 },
 {
   "Comuna": "FRESIA",
   "Codigo": 10104,
   "Región": "DE LOS LAGOS"
 },
 {
   "Comuna": "FRUTILLAR",
   "Codigo": 10105,
   "Región": "DE LOS LAGOS"
 },
 {
   "Comuna": "FUTRONO",
   "Codigo": 14202,
   "Región": "DE LOS RIOS"
 },
 {
   "Comuna": "GALVARINO",
   "Codigo": 9106,
   "Región": "DE LA ARAUCANIA"
 },
 {
   "Comuna": "GENERAL LAGOS",
   "Codigo": 15202,
   "Región": "ARICA Y PARINACOTA"
 },
 {
   "Comuna": "GORBEA",
   "Codigo": 9107,
   "Región": "DE LA ARAUCANIA"
 },
 {
   "Comuna": "GRANEROS",
   "Codigo": 6106,
   "Región": "DEL LIBERTADOR BDO. O'HIGGINS"
 },
 {
   "Comuna": "GUAITECAS",
   "Codigo": 11203,
   "Región": "AISEN DEL GRAL. CARLOS IBAÑES"
 },
 {
   "Comuna": "HIJUELAS",
   "Codigo": 5503,
   "Región": "DE VALPARAISO"
 },
 {
   "Comuna": "HUALQUI",
   "Codigo": 8105,
   "Región": "DEL BIOBIO"
 },
 {
   "Comuna": "HUARA",
   "Codigo": 1404,
   "Región": "DE TARAPACA"
 },
 {
   "Comuna": "HUASCO",
   "Codigo": 3304,
   "Región": "DE ATACAMA"
 },
 {
   "Comuna": "HUECHURABA",
   "Codigo": 13107,
   "Región": "METROPOLITANA DE SANTIAGO"
 },
 {
   "Comuna": "ILLAPEL",
   "Codigo": 4201,
   "Región": "DE COQUIMBO"
 },
 {
   "Comuna": "INDEPENDENCIA",
   "Codigo": 13108,
   "Región": "METROPOLITANA DE SANTIAGO"
 },
 {
   "Comuna": "IQUIQUE",
   "Codigo": 1101,
   "Región": "DE TARAPACA"
 },
 {
   "Comuna": "ISLA DE MAIPO",
   "Codigo": 13603,
   "Región": "METROPOLITANA DE SANTIAGO"
 },
 {
   "Comuna": "ISLA DE PASCUA",
   "Codigo": 5201,
   "Región": "DE VALPARAISO"
 },
 {
   "Comuna": "LA CISTERNA",
   "Codigo": 13109,
   "Región": "METROPOLITANA DE SANTIAGO"
 },
 {
   "Comuna": "LA CRUZ",
   "Codigo": 5504,
   "Región": "DE VALPARAISO"
 },
 {
   "Comuna": "LA ESTRELLA",
   "Codigo": 6202,
   "Región": "DEL LIBERTADOR BDO. O'HIGGINS"
 },
 {
   "Comuna": "LA FLORIDA",
   "Codigo": 13110,
   "Región": "METROPOLITANA DE SANTIAGO"
 },
 {
   "Comuna": "LA GRANJA",
   "Codigo": 13111,
   "Región": "METROPOLITANA DE SANTIAGO"
 },
 {
   "Comuna": "LA HIGUERA",
   "Codigo": 4104,
   "Región": "DE COQUIMBO"
 },
 {
   "Comuna": "LA LIGUA",
   "Codigo": 5401,
   "Región": "DE VALPARAISO"
 },
 {
   "Comuna": "LA PINTANA",
   "Codigo": 13112,
   "Región": "METROPOLITANA DE SANTIAGO"
 },
 {
   "Comuna": "LA REINA",
   "Codigo": 13113,
   "Región": "METROPOLITANA DE SANTIAGO"
 },
 {
   "Comuna": "LA SERENA",
   "Codigo": 4101,
   "Región": "DE COQUIMBO"
 },
 {
   "Comuna": "LAGO RANCO",
   "Codigo": 14203,
   "Región": "DE LOS RIOS"
 },
 {
   "Comuna": "LAGO VERDE",
   "Codigo": 11102,
   "Región": "AISEN DEL GRAL. CARLOS IBAÑES"
 },
 {
   "Comuna": "LAGUNA BLANCA",
   "Codigo": 12102,
   "Región": "DE MAGALLANES Y ANTARTICA CH."
 },
 {
   "Comuna": "LAJA",
   "Codigo": 8304,
   "Región": "DEL BIOBIO"
 },
 {
   "Comuna": "LAMPA",
   "Codigo": 13302,
   "Región": "METROPOLITANA DE SANTIAGO"
 },
 {
   "Comuna": "LANCO",
   "Codigo": 14103,
   "Región": "DE LOS RIOS"
 },
 {
   "Comuna": "LAS CABRAS",
   "Codigo": 6107,
   "Región": "DEL LIBERTADOR BDO. O'HIGGINS"
 },
 {
   "Comuna": "LAS CONDES",
   "Codigo": 13114,
   "Región": "METROPOLITANA DE SANTIAGO"
 },
 {
   "Comuna": "LAUTARO",
   "Codigo": 9108,
   "Región": "DE LA ARAUCANIA"
 },
 {
   "Comuna": "LEBU",
   "Codigo": 8201,
   "Región": "DEL BIOBIO"
 },
 {
   "Comuna": "LIMACHE",
   "Codigo": 5802,
   "Región": "DE VALPARAISO"
 },
 {
   "Comuna": "LINARES",
   "Codigo": 7401,
   "Región": "DEL MAULE"
 },
 {
   "Comuna": "LITUECHE",
   "Codigo": 6203,
   "Región": "DEL LIBERTADOR BDO. O'HIGGINS"
 },
 {
   "Comuna": "LLANQUIHUE",
   "Codigo": 10107,
   "Región": "DE LOS LAGOS"
 },
 {
   "Comuna": "LO BARNECHEA",
   "Codigo": 13115,
   "Región": "METROPOLITANA DE SANTIAGO"
 },
 {
   "Comuna": "LO ESPEJO",
   "Codigo": 13116,
   "Región": "METROPOLITANA DE SANTIAGO"
 },
 {
   "Comuna": "LO PRADO",
   "Codigo": 13117,
   "Región": "METROPOLITANA DE SANTIAGO"
 },
 {
   "Comuna": "LOLOL",
   "Codigo": 6304,
   "Región": "DEL LIBERTADOR BDO. O'HIGGINS"
 },
 {
   "Comuna": "LONCOCHE",
   "Codigo": 9109,
   "Región": "DE LA ARAUCANIA"
 },
 {
   "Comuna": "LONQUIMAY",
   "Codigo": 9205,
   "Región": "DE LA ARAUCANIA"
 },
 {
   "Comuna": "LOS ANDES",
   "Codigo": 5301,
   "Región": "DE VALPARAISO"
 },
 {
   "Comuna": "LOS LAGOS",
   "Codigo": 14104,
   "Región": "DE LOS RIOS"
 },
 {
   "Comuna": "LOS MUERMOS",
   "Codigo": 10106,
   "Región": "DE LOS LAGOS"
 },
 {
   "Comuna": "LOS SAUCES",
   "Codigo": 9206,
   "Región": "DE LA ARAUCANIA"
 },
 {
   "Comuna": "LOS VILOS",
   "Codigo": 4203,
   "Región": "DE COQUIMBO"
 },
 {
   "Comuna": "LOTA",
   "Codigo": 8106,
   "Región": "DEL BIOBIO"
 },
 {
   "Comuna": "LUMACO",
   "Codigo": 9207,
   "Región": "DE LA ARAUCANIA"
 },
 {
   "Comuna": "MACUL",
   "Codigo": 13118,
   "Región": "METROPOLITANA DE SANTIAGO"
 },
 {
   "Comuna": "MALLOA",
   "Codigo": 6109,
   "Región": "DEL LIBERTADOR BDO. O'HIGGINS"
 },
 {
   "Comuna": "MARIQUINA",
   "Codigo": 14106,
   "Región": "DE LOS RIOS"
 },
 {
   "Comuna": "MAULE",
   "Codigo": 7105,
   "Región": "DEL MAULE"
 },
 {
   "Comuna": "MEJILLONES",
   "Codigo": 2102,
   "Región": "DE ANTOFAGASTA"
 },
 {
   "Comuna": "MELIPEUCO",
   "Codigo": 9110,
   "Región": "DE LA ARAUCANIA"
 },
 {
   "Comuna": "MELIPILLA",
   "Codigo": 13501,
   "Región": "METROPOLITANA DE SANTIAGO"
 },
 {
   "Comuna": "MOLINA",
   "Codigo": 7304,
   "Región": "DEL MAULE"
 },
 {
   "Comuna": "MONTE PATRIA",
   "Codigo": 4303,
   "Región": "DE COQUIMBO"
 },
 {
   "Comuna": "MOSTAZAL",
   "Codigo": 6110,
   "Región": "DEL LIBERTADOR BDO. O'HIGGINS"
 },
 {
   "Comuna": "NACIMIENTO",
   "Codigo": 8306,
   "Región": "DEL BIOBIO"
 },
 {
   "Comuna": "NANCAGUA",
   "Codigo": 6305,
   "Región": "DEL LIBERTADOR BDO. O'HIGGINS"
 },
 {
   "Comuna": "NATALES",
   "Codigo": 12401,
   "Región": "DE MAGALLANES Y ANTARTICA CH."
 },
 {
   "Comuna": "NAVIDAD",
   "Codigo": 6205,
   "Región": "DEL LIBERTADOR BDO. O'HIGGINS"
 },
 {
   "Comuna": "NEGRETE",
   "Codigo": 8307,
   "Región": "DEL BIOBIO"
 },
 {
   "Comuna": "NINHUE",
   "Codigo": 8408,
   "Región": "DEL BIOBIO"
 },
 {
   "Comuna": "NOGALES",
   "Codigo": 5506,
   "Región": "DE VALPARAISO"
 },
 {
   "Comuna": "NUEVA IMPERIAL",
   "Codigo": 9111,
   "Región": "DE LA ARAUCANIA"
 },
 {
   "Comuna": "O'HIGGINS",
   "Codigo": 11302,
   "Región": "AISEN DEL GRAL. CARLOS IBAÑES"
 },
 {
   "Comuna": "OLIVAR",
   "Codigo": 6111,
   "Región": "DEL LIBERTADOR BDO. O'HIGGINS"
 },
 {
   "Comuna": "OSORNO",
   "Codigo": 10301,
   "Región": "DE LOS LAGOS"
 },
 {
   "Comuna": "OVALLE",
   "Codigo": 4301,
   "Región": "DE COQUIMBO"
 },
 {
   "Comuna": "PADRE HURTADO",
   "Codigo": 13604,
   "Región": "METROPOLITANA DE SANTIAGO"
 },
 {
   "Comuna": "PADRE LAS CASAS",
   "Codigo": 9112,
   "Región": "DE LA ARAUCANIA"
 },
 {
   "Comuna": "PAILLACO",
   "Codigo": 14107,
   "Región": "DE LOS RIOS"
 },
 {
   "Comuna": "PAINE",
   "Codigo": 13404,
   "Región": "METROPOLITANA DE SANTIAGO"
 },
 {
   "Comuna": "PALENA",
   "Codigo": 10404,
   "Región": "DE LOS LAGOS"
 },
 {
   "Comuna": "PALMILLA",
   "Codigo": 6306,
   "Región": "DEL LIBERTADOR BDO. O'HIGGINS"
 },
 {
   "Comuna": "PANGUIPULLI",
   "Codigo": 14108,
   "Región": "DE LOS RIOS"
 },
 {
   "Comuna": "PANQUEHUE",
   "Codigo": 5704,
   "Región": "DE VALPARAISO"
 },
 {
   "Comuna": "PAPUDO",
   "Codigo": 5403,
   "Región": "DE VALPARAISO"
 },
 {
   "Comuna": "PAREDONES",
   "Codigo": 6206,
   "Región": "DEL LIBERTADOR BDO. O'HIGGINS"
 },
 {
   "Comuna": "PARRAL",
   "Codigo": 7404,
   "Región": "DEL MAULE"
 },
 {
   "Comuna": "PEDRO AGUIRRE CERDA",
   "Codigo": 13121,
   "Región": "METROPOLITANA DE SANTIAGO"
 },
 {
   "Comuna": "PELARCO",
   "Codigo": 7106,
   "Región": "DEL MAULE"
 },
 {
   "Comuna": "PELLUHUE",
   "Codigo": 7203,
   "Región": "DEL MAULE"
 },
 {
   "Comuna": "PEMUCO",
   "Codigo": 8410,
   "Región": "DEL BIOBIO"
 },
 {
   "Comuna": "PENCAHUE",
   "Codigo": 7107,
   "Región": "DEL MAULE"
 },
 {
   "Comuna": "PENCO",
   "Codigo": 8107,
   "Región": "DEL BIOBIO"
 },
 {
   "Comuna": "PERALILLO",
   "Codigo": 6307,
   "Región": "DEL LIBERTADOR BDO. O'HIGGINS"
 },
 {
   "Comuna": "PERQUENCO",
   "Codigo": 9113,
   "Región": "DE LA ARAUCANIA"
 },
 {
   "Comuna": "PETORCA",
   "Codigo": 5404,
   "Región": "DE VALPARAISO"
 },
 {
   "Comuna": "PEUMO",
   "Codigo": 6112,
   "Región": "DEL LIBERTADOR BDO. O'HIGGINS"
 },
 {
   "Comuna": "PICA",
   "Codigo": 1405,
   "Región": "DE TARAPACA"
 },
 {
   "Comuna": "PICHIDEGUA",
   "Codigo": 6113,
   "Región": "DEL LIBERTADOR BDO. O'HIGGINS"
 },
 {
   "Comuna": "PICHILEMU",
   "Codigo": 6201,
   "Región": "DEL LIBERTADOR BDO. O'HIGGINS"
 },
 {
   "Comuna": "PINTO",
   "Codigo": 8411,
   "Región": "DEL BIOBIO"
 },
 {
   "Comuna": "PIRQUE",
   "Codigo": 13202,
   "Región": "METROPOLITANA DE SANTIAGO"
 },
 {
   "Comuna": "PLACILLA",
   "Codigo": 6308,
   "Región": "DEL LIBERTADOR BDO. O'HIGGINS"
 },
 {
   "Comuna": "PORTEZUELO",
   "Codigo": 8412,
   "Región": "DEL BIOBIO"
 },
 {
   "Comuna": "PORVENIR",
   "Codigo": 12301,
   "Región": "DE MAGALLANES Y ANTARTICA CH."
 },
 {
   "Comuna": "POZO ALMONTE",
   "Codigo": 1401,
   "Región": "DE TARAPACA"
 },
 {
   "Comuna": "PRIMAVERA",
   "Codigo": 12302,
   "Región": "DE MAGALLANES Y ANTARTICA CH."
 },
 {
   "Comuna": "PROVIDENCIA",
   "Codigo": 13123,
   "Región": "METROPOLITANA DE SANTIAGO"
 },
 {
   "Comuna": "PUDAHUEL",
   "Codigo": 13124,
   "Región": "METROPOLITANA DE SANTIAGO"
 },
 {
   "Comuna": "PUENTE ALTO",
   "Codigo": 13201,
   "Región": "METROPOLITANA DE SANTIAGO"
 },
 {
   "Comuna": "PUERTO MONTT",
   "Codigo": 10101,
   "Región": "DE LOS LAGOS"
 },
 {
   "Comuna": "PUERTO OCTAY",
   "Codigo": 10302,
   "Región": "DE LOS LAGOS"
 },
 {
   "Comuna": "PUERTO VARAS",
   "Codigo": 10109,
   "Región": "DE LOS LAGOS"
 },
 {
   "Comuna": "PUMANQUE",
   "Codigo": 6309,
   "Región": "DEL LIBERTADOR BDO. O'HIGGINS"
 },
 {
   "Comuna": "PUNITAQUI",
   "Codigo": 4304,
   "Región": "DE COQUIMBO"
 },
 {
   "Comuna": "PUNTA ARENAS",
   "Codigo": 12101,
   "Región": "DE MAGALLANES Y ANTARTICA CH."
 },
 {
   "Comuna": "PURRANQUE",
   "Codigo": 10303,
   "Región": "DE LOS LAGOS"
 },
 {
   "Comuna": "PUTAENDO",
   "Codigo": 5705,
   "Región": "DE VALPARAISO"
 },
 {
   "Comuna": "PUTRE",
   "Codigo": 15201,
   "Región": "ARICA Y PARINACOTA"
 },
 {
   "Comuna": "PUYEHUE",
   "Codigo": 10304,
   "Región": "DE LOS LAGOS"
 },
 {
   "Comuna": "QUEMCHI",
   "Codigo": 10209,
   "Región": "DE LOS LAGOS"
 },
 {
   "Comuna": "QUILACO",
   "Codigo": 8308,
   "Región": "DEL BIOBIO"
 },
 {
   "Comuna": "QUILICURA",
   "Codigo": 13125,
   "Región": "METROPOLITANA DE SANTIAGO"
 },
 {
   "Comuna": "QUILLECO",
   "Codigo": 8309,
   "Región": "DEL BIOBIO"
 },
 {
   "Comuna": "QUILLOTA",
   "Codigo": 5501,
   "Región": "DE VALPARAISO"
 },
 {
   "Comuna": "QUINCHAO",
   "Codigo": 10210,
   "Región": "DE LOS LAGOS"
 },
 {
   "Comuna": "QUINTA DE TILCOCO",
   "Codigo": 6114,
   "Región": "DEL LIBERTADOR BDO. O'HIGGINS"
 },
 {
   "Comuna": "QUINTA NORMAL",
   "Codigo": 13126,
   "Región": "METROPOLITANA DE SANTIAGO"
 },
 {
   "Comuna": "QUINTERO",
   "Codigo": 5107,
   "Región": "DE VALPARAISO"
 },
 {
   "Comuna": "QUIRIHUE",
   "Codigo": 8414,
   "Región": "DEL BIOBIO"
 },
 {
   "Comuna": "RANCAGUA",
   "Codigo": 6101,
   "Región": "DEL LIBERTADOR BDO. O'HIGGINS"
 },
 {
   "Comuna": "RAUCO",
   "Codigo": 7305,
   "Región": "DEL MAULE"
 },
 {
   "Comuna": "RECOLETA",
   "Codigo": 13127,
   "Región": "METROPOLITANA DE SANTIAGO"
 },
 {
   "Comuna": "RENAICO",
   "Codigo": 9209,
   "Región": "DE LA ARAUCANIA"
 },
 {
   "Comuna": "RENCA",
   "Codigo": 13128,
   "Región": "METROPOLITANA DE SANTIAGO"
 },
 {
   "Comuna": "RENGO",
   "Codigo": 6115,
   "Región": "DEL LIBERTADOR BDO. O'HIGGINS"
 },
 {
   "Comuna": "RETIRO",
   "Codigo": 7405,
   "Región": "DEL MAULE"
 },
 {
   "Comuna": "RINCONADA",
   "Codigo": 5303,
   "Región": "DE VALPARAISO"
 },
 {
   "Comuna": "ROMERAL",
   "Codigo": 7306,
   "Región": "DEL MAULE"
 },
 {
   "Comuna": "SAAVEDRA",
   "Codigo": 9116,
   "Región": "DE LA ARAUCANIA"
 },
 {
   "Comuna": "SAGRADA FAMILIA",
   "Codigo": 7307,
   "Región": "DEL MAULE"
 },
 {
   "Comuna": "SALAMANCA",
   "Codigo": 4204,
   "Región": "DE COQUIMBO"
 },
 {
   "Comuna": "SAN ANTONIO",
   "Codigo": 5601,
   "Región": "DE VALPARAISO"
 },
 {
   "Comuna": "SAN BERNARDO",
   "Codigo": 13401,
   "Región": "METROPOLITANA DE SANTIAGO"
 },
 {
   "Comuna": "SAN CARLOS",
   "Codigo": 8416,
   "Región": "DEL BIOBIO"
 },
 {
   "Comuna": "SAN CLEMENTE",
   "Codigo": 7109,
   "Región": "DEL MAULE"
 },
 {
   "Comuna": "SAN ESTEBAN",
   "Codigo": 5304,
   "Región": "DE VALPARAISO"
 },
 {
   "Comuna": "SAN FELIPE",
   "Codigo": 5701,
   "Región": "DE VALPARAISO"
 },
 {
   "Comuna": "SAN FERNANDO",
   "Codigo": 6301,
   "Región": "DEL LIBERTADOR BDO. O'HIGGINS"
 },
 {
   "Comuna": "SAN GREGORIO",
   "Codigo": 12104,
   "Región": "DE MAGALLANES Y ANTARTICA CH."
 },
 {
   "Comuna": "SAN IGNACIO",
   "Codigo": 8418,
   "Región": "DEL BIOBIO"
 },
 {
   "Comuna": "SAN JAVIER",
   "Codigo": 7406,
   "Región": "DEL MAULE"
 },
 {
   "Comuna": "SAN JUAN DE LA COSTA",
   "Codigo": 10306,
   "Región": "DE LOS LAGOS"
 },
 {
   "Comuna": "SAN MIGUEL",
   "Codigo": 13130,
   "Región": "METROPOLITANA DE SANTIAGO"
 },
 {
   "Comuna": "SAN PABLO",
   "Codigo": 10307,
   "Región": "DE LOS LAGOS"
 },
 {
   "Comuna": "SAN PEDRO",
   "Codigo": 13505,
   "Región": "METROPOLITANA DE SANTIAGO"
 },
 {
   "Comuna": "SAN PEDRO DE ATACAMA",
   "Codigo": 2203,
   "Región": "DE ANTOFAGASTA"
 },
 {
   "Comuna": "SAN PEDRO DE LA PAZ",
   "Codigo": 8108,
   "Región": "DEL BIOBIO"
 },
 {
   "Comuna": "SAN RAFAEL",
   "Codigo": 7110,
   "Región": "DEL MAULE"
 },
 {
   "Comuna": "SAN ROSENDO",
   "Codigo": 8310,
   "Región": "DEL BIOBIO"
 },
 {
   "Comuna": "SAN VICENTE",
   "Codigo": 6117,
   "Región": "DEL LIBERTADOR BDO. O'HIGGINS"
 },
 {
   "Comuna": "SANTA CRUZ",
   "Codigo": 6310,
   "Región": "DEL LIBERTADOR BDO. O'HIGGINS"
 },
 {
   "Comuna": "SANTA JUANA",
   "Codigo": 8109,
   "Región": "DEL BIOBIO"
 },
 {
   "Comuna": "SANTIAGO",
   "Codigo": 13101,
   "Región": "METROPOLITANA DE SANTIAGO"
 },
 {
   "Comuna": "SANTO DOMINGO",
   "Codigo": 5606,
   "Región": "DE VALPARAISO"
 },
 {
   "Comuna": "SIERRA GORDA",
   "Codigo": 2103,
   "Región": "DE ANTOFAGASTA"
 },
 {
   "Comuna": "TALAGANTE",
   "Codigo": 13601,
   "Región": "METROPOLITANA DE SANTIAGO"
 },
 {
   "Comuna": "TALCA",
   "Codigo": 7101,
   "Región": "DEL MAULE"
 },
 {
   "Comuna": "TALCAHUANO",
   "Codigo": 8110,
   "Región": "DEL BIOBIO"
 },
 {
   "Comuna": "TALTAL",
   "Codigo": 2104,
   "Región": "DE ANTOFAGASTA"
 },
 {
   "Comuna": "TEMUCO",
   "Codigo": 9101,
   "Región": "DE LA ARAUCANIA"
 },
 {
   "Comuna": "TENO",
   "Codigo": 7308,
   "Región": "DEL MAULE"
 },
 {
   "Comuna": "TEODORO SCHMIDT",
   "Codigo": 9117,
   "Región": "DE LA ARAUCANIA"
 },
 {
   "Comuna": "TIERRA AMARILLA",
   "Codigo": 3103,
   "Región": "DE ATACAMA"
 },
 {
   "Comuna": "TILTIL",
   "Codigo": 13303,
   "Región": "METROPOLITANA DE SANTIAGO"
 },
 {
   "Comuna": "TIMAUKEL",
   "Codigo": 12303,
   "Región": "DE MAGALLANES Y ANTARTICA CH."
 },
 {
   "Comuna": "TOCOPILLA",
   "Codigo": 2301,
   "Región": "DE ANTOFAGASTA"
 },
 {
   "Comuna": "TORRES DEL PAINE",
   "Codigo": 12402,
   "Región": "DE MAGALLANES Y ANTARTICA CH."
 },
 {
   "Comuna": "TORTEL",
   "Codigo": 11303,
   "Región": "AISEN DEL GRAL. CARLOS IBAÑES"
 },
 {
   "Comuna": "TREGUACO",
   "Codigo": 8420,
   "Región": "DEL BIOBIO"
 },
 {
   "Comuna": "TUCAPEL",
   "Codigo": 8312,
   "Región": "DEL BIOBIO"
 },
 {
   "Comuna": "VALDIVIA",
   "Codigo": 14101,
   "Región": "DE LOS RIOS"
 },
 {
   "Comuna": "VALLENAR",
   "Codigo": 3301,
   "Región": "DE ATACAMA"
 },
 {
   "Comuna": "VICTORIA",
   "Codigo": 9211,
   "Región": "DE LA ARAUCANIA"
 },
 {
   "Comuna": "VILLA ALEGRE",
   "Codigo": 7407,
   "Región": "DEL MAULE"
 },
 {
   "Comuna": "VILLA ALEMANA",
   "Codigo": 5804,
   "Región": "DE VALPARAISO"
 },
 {
   "Comuna": "VILLARRICA",
   "Codigo": 9120,
   "Región": "DE LA ARAUCANIA"
 },
 {
   "Comuna": "VITACURA",
   "Codigo": 13132,
   "Región": "METROPOLITANA DE SANTIAGO"
 },
 {
   "Comuna": "YERBAS BUENAS",
   "Codigo": 7408,
   "Región": "DEL MAULE"
 },
 {
   "Comuna": "YUMBEL",
   "Codigo": 8313,
   "Región": "DEL BIOBIO"
 },
 {
   "Comuna": "YUNGAY",
   "Codigo": 8421,
   "Región": "DEL BIOBIO"
 },
 {
   "Comuna": "ZAPALLAR",
   "Codigo": 5405,
   "Región": "DE VALPARAISO"
 }
]
